Session 1: Introduction to R
…
#We can transform this back with the complementary function pivot_longer
long.dat = wide.dat %>%
#Below, we can use - to signal which columns should not be pivoted. This is shorthand for the argument "cols", which alternatively needs a list of columns to pivot.
  pivot_longer(-spray, names_to="individual", values_to="count")

long.dat

## # A tibble: 72 x 3
## # Groups:   spray [6]
##    spray individual count
##    <fct> <chr>      <dbl>
##  1 A     1             10
##  2 A     2              7
##  3 A     3             20
##  4 A     4             14
##  5 A     5             14
##  6 A     6             12
##  7 A     7             10
##  8 A     8             23
##  9 A     9             17
## 10 A     10            20
## #  with 62 more rows
…
